\contentsline {chapter}{\numberline {1}Linux Firewalls}{3}{chapter.1}
\contentsline {section}{\numberline {1.1}Section A: Introduction to Firewalls}{3}{section.1.1}
\contentsline {section}{\numberline {1.2}Section B: Ubuntu Firewalls}{4}{section.1.2}
\contentsline {section}{\numberline {1.3}Section C: iptables}{4}{section.1.3}
\contentsline {section}{\numberline {1.4}Section D: ufw and gufw}{6}{section.1.4}
\contentsline {section}{\numberline {1.5}Section E: Conclusion and Next Steps}{9}{section.1.5}
