\relax 
\providecommand\hyper@newdestlabel[2]{}
\providecommand\HyperFirstAtBeginDocument{\AtBeginDocument}
\HyperFirstAtBeginDocument{\ifx\hyper@anchor\@undefined
\global\let\oldcontentsline\contentsline
\gdef\contentsline#1#2#3#4{\oldcontentsline{#1}{#2}{#3}}
\global\let\oldnewlabel\newlabel
\gdef\newlabel#1#2{\newlabelxx{#1}#2}
\gdef\newlabelxx#1#2#3#4#5#6{\oldnewlabel{#1}{{#2}{#3}}}
\AtEndDocument{\ifx\hyper@anchor\@undefined
\let\contentsline\oldcontentsline
\let\newlabel\oldnewlabel
\fi}
\fi}
\global\let\hyper@last\relax 
\gdef\HyperFirstAtBeginDocument#1{#1}
\providecommand\HyField@AuxAddToFields[1]{}
\providecommand\HyField@AuxAddToCoFields[2]{}
\@writefile{toc}{\contentsline {chapter}{\numberline {1}Linux Firewalls}{3}{chapter.1}}
\@writefile{lof}{\addvspace {10\p@ }}
\@writefile{lot}{\addvspace {10\p@ }}
\newlabel{chapter: Linux Firewalls}{{1}{3}{Linux Firewalls}{chapter.1}{}}
\@writefile{toc}{\contentsline {section}{\numberline {1.1}Section A: Introduction to Firewalls}{3}{section.1.1}}
\@writefile{toc}{\contentsline {section}{\numberline {1.2}Section B: Ubuntu Firewalls}{4}{section.1.2}}
\@writefile{toc}{\contentsline {section}{\numberline {1.3}Section C: iptables}{4}{section.1.3}}
\@writefile{lof}{\contentsline {figure}{\numberline {1.1}{\ignorespaces A output of the list of rules afte rrunning some of the above commands}}{6}{figure.1.1}}
\newlabel{fig:iptables}{{1.1}{6}{A output of the list of rules afte rrunning some of the above commands}{figure.1.1}{}}
\@writefile{toc}{\contentsline {section}{\numberline {1.4}Section D: ufw and gufw}{6}{section.1.4}}
\@writefile{lof}{\contentsline {figure}{\numberline {1.2}{\ignorespaces Output of the current list of rules in numbered format}}{7}{figure.1.2}}
\newlabel{fig:ufw2}{{1.2}{7}{Output of the current list of rules in numbered format}{figure.1.2}{}}
\@writefile{lof}{\contentsline {figure}{\numberline {1.3}{\ignorespaces Output after inserting a rule in a certain place}}{7}{figure.1.3}}
\newlabel{ufw3}{{1.3}{7}{Output after inserting a rule in a certain place}{figure.1.3}{}}
\@writefile{lof}{\contentsline {figure}{\numberline {1.4}{\ignorespaces An example of deleting rule 1}}{8}{figure.1.4}}
\newlabel{ufw4}{{1.4}{8}{An example of deleting rule 1}{figure.1.4}{}}
\@writefile{lof}{\contentsline {figure}{\numberline {1.5}{\ignorespaces Output of --dry-run}}{8}{figure.1.5}}
\newlabel{fig: ufw1}{{1.5}{8}{Output of --dry-run}{figure.1.5}{}}
\@writefile{lof}{\contentsline {figure}{\numberline {1.6}{\ignorespaces Make sure to enable GUFW before use}}{9}{figure.1.6}}
\newlabel{gufw1}{{1.6}{9}{Make sure to enable GUFW before use}{figure.1.6}{}}
\@writefile{lof}{\contentsline {figure}{\numberline {1.7}{\ignorespaces Basic format of a predefined rule}}{9}{figure.1.7}}
\newlabel{gufw2}{{1.7}{9}{Basic format of a predefined rule}{figure.1.7}{}}
\@writefile{toc}{\contentsline {section}{\numberline {1.5}Section E: Conclusion and Next Steps}{9}{section.1.5}}
